15 noisy estimation · MTKNeuralToolkit.jl
…
Random.seed!(42)
noise_level = 3.0
V_data_noisy = V_data_clean .+ noise_level .* randn(length(V_data_clean))
itp_V = LinearInterpolation(V_data_noisy, timesteps)

LinearInterpolation with 1001 points
┌───────┬──────────┐
│     t │        u │
├───────┼──────────┤
│   0.0 │ -66.0901 │
│   0.1 │ -63.4707 │
│   0.2 │ -64.4359 │
│   0.3 │ -63.7193 │
│   0.4 │ -59.6527 │
│   0.5 │ -60.0014 │
│   0.6 │ -63.3463 │
│   0.7 │ -64.5091 │
│     ⋮ │        ⋮ │
│  99.3 │  3.27497 │
│  99.4 │ -1.30911 │
│  99.5 │ -4.74927 │
│  99.6 │ -8.18907 │
│  99.7 │ -21.2467 │
│  99.8 │ -17.1929 │
│  99.9 │ -25.3975 │
│ 100.0 │ -29.7477 │
└───────┴──────────┘
    985 rows omitted
…
